2 Data analysis in R – Introduction to Regression Analysis
…
Each observation forms a row.

Each type of observational unit forms a table.

Let’s take a look at the penguins data frame from the palmerpenguins package that was introduced in Section 2.1.

library(palmerpenguins)
data(penguins)

The first ten rows of penguins is shown in Table 2.1.

Table 2.1: First 10 rows of penguins data

# A tibble: 10 × 8
  species island    bill_length_mm bill_depth_mm flipper_length_mm body_mass_g
  <fct>   <fct>              <dbl>         <dbl>             <int>       <int>
1 Adelie  Torgersen           39.1          18.7               181        3750
2 Adelie  Torgersen           39.5          17.4               186        3800
3 Adelie  Torgersen           40.3          18                 195        3250
4 Adelie  Torgersen           NA            NA                  NA          NA
5 Adelie  Torgersen           36.7          19.3               193        3450
6 Adelie  Torgersen           39.3          20.6               190        3650
# ℹ 4 more rows
# ℹ 2 more variables: sex <fct>, year <int>
…
The dplyr package is tidyverse’s primary package for data wrangling and manipulation. We often use functions from dplyr for analysis steps such as data exploration (Chapter 3), evaluating model conditions (Chapter 6), and applying variable transformations (Chapter 9).

The functions in dplyr perform one of the following tasks: manipulate the data by row, manipulate the data by column, or manipulate groups of rows. We will show key functions in each of these categories that are used frequently in the text. The full list of dplyr functions is available at the dplyr reference site https://dplyr.tidyverse.org.

2.4.1 Data manipulation by row

filter()

The filter function is used to choose rows based on a set of criteria defined by the columns in the data. For example, we may use filter() to narrow the data to a specific subgroup of observations. The filtering criteria can be based on one variable or multiple variables. For example, let’s filter the data such that we choose the rows for penguins in the Adelie species.

penguins |> 
  filter(species == "Adelie")

# A tibble: 152 × 8
  species island    bill_length_mm bill_depth_mm flipper_length_mm body_mass_g
  <fct>   <fct>              <dbl>         <dbl>             <int>       <int>
1 Adelie  Torgersen           39.1          18.7               181        3750
2 Adelie  Torgersen           39.5          17.4               186        3800
3 Adelie  Torgersen           40.3          18                 195        3250
4 Adelie  Torgersen           NA            NA                  NA          NA
5 Adelie  Torgersen           36.7          19.3               193        3450
6 Adelie  Torgersen           39.3          20.6               190        3650
# ℹ 146 more rows
# ℹ 2 more variables: sex <fct>, year <int>

How many penguins are in the Adelie species?3

We can filter based on multiple variables by specifying “and” or “or” criteria. For example, let’s filter the data so that we choose rows for penguins in the Adelie species and from Dream island.

penguins |> 
  filter(species == "Adelie" & island == "Dream")

# A tibble: 56 × 8
  species island bill_length_mm bill_depth_mm flipper_length_mm body_mass_g
  <fct>   <fct>           <dbl>         <dbl>             <int>       <int>
1 Adelie  Dream            39.5          16.7               178        3250
2 Adelie  Dream            37.2          18.1               178        3900
3 Adelie  Dream            39.5          17.8               188        3300
4 Adelie  Dream            40.9          18.9               184        3900
5 Adelie  Dream            36.4          17                 195        3325
6 Adelie  Dream            39.2          21.1               196        4150
# ℹ 50 more rows
# ℹ 2 more variables: sex <fct>, year <int>

There are 56 penguins from the Adelie species and Dream island. This is a smaller subset than in the previous example, because observations have to satisfy both criteria to be included in the resulting tibble.

Alternatively, let’s suppose we wish to filter the data such that we choose penguins who are from the Adelie species or from Dream island.

penguins |> 
  filter(species == "Adelie" | island == "Dream")

# A tibble: 220 × 8
  species island    bill_length_mm bill_depth_mm flipper_length_mm body_mass_g
  <fct>   <fct>              <dbl>         <dbl>             <int>       <int>
1 Adelie  Torgersen           39.1          18.7               181        3750
2 Adelie  Torgersen           39.5          17.4               186        3800
3 Adelie  Torgersen           40.3          18                 195        3250
4 Adelie  Torgersen           NA            NA                  NA          NA
5 Adelie  Torgersen           36.7          19.3               193        3450
6 Adelie  Torgersen           39.3          20.6               190        3650
# ℹ 214 more rows
# ℹ 2 more variables: sex <fct>, year <int>

There are 220 penguins in the resulting tibble. There are more penguins in this tibble than in the previous two, because penguins can meet one or both of the criteria to be included in the resulting tibble.

Lastly, we use ! to define criteria in terms of excluding observations that take a certain value. For example, let’s select the penguins in the Adelie species and are not on Dream island.

penguins |>
  filter(species == "Adelie" & island != "Dream")

# A tibble: 96 × 8
  species island    bill_length_mm bill_depth_mm flipper_length_mm body_mass_g
  <fct>   <fct>              <dbl>         <dbl>             <int>       <int>
1 Adelie  Torgersen           39.1          18.7               181        3750
2 Adelie  Torgersen           39.5          17.4               186        3800
3 Adelie  Torgersen           40.3          18                 195        3250
4 Adelie  Torgersen           NA            NA                  NA          NA
5 Adelie  Torgersen           36.7          19.3               193        3450
6 Adelie  Torgersen           39.3          20.6               190        3650
# ℹ 90 more rows
# ℹ 2 more variables: sex <fct>, year <int>

arrange()

The arrange function is used to sort the data based on the values in one or more columns. This can be useful as we explore the data to identify outlying observations with unusually high or unusually low values. In the code below, the observations are sorted in ascending order (smallest to largest) based on values of bill_length_mm .

penguins |> 
  arrange(bill_length_mm)

# A tibble: 344 × 8
  species island    bill_length_mm bill_depth_mm flipper_length_mm body_mass_g
  <fct>   <fct>              <dbl>         <dbl>             <int>       <int>
1 Adelie  Dream               32.1          15.5               188        3050
2 Adelie  Dream               33.1          16.1               178        2900
3 Adelie  Torgersen           33.5          19                 190        3600
4 Adelie  Dream               34            17.1               185        3400
5 Adelie  Torgersen           34.1          18.1               193        3475
6 Adelie  Torgersen           34.4          18.4               184        3325
# ℹ 338 more rows
# ℹ 2 more variables: sex <fct>, year <int>

From the first few observations, we see the values of bill_length_mm increase as we move down the list of observations. Now we can more easily see the smallest bill_length_mm in the data, 32.1 mm. Including the desc argument in the arrange function sorts the data in descending order (largest to smallest). The code below sorts the observations in descending order by bill_length_mm.

penguins |> 
  arrange(desc(bill_length_mm))

# A tibble: 344 × 8
  species   island bill_length_mm bill_depth_mm flipper_length_mm body_mass_g
  <fct>     <fct>           <dbl>         <dbl>             <int>       <int>
1 Gentoo    Biscoe           59.6          17                 230        6050
2 Chinstrap Dream            58            17.8               181        3700
3 Gentoo    Biscoe           55.9          17                 228        5600
4 Chinstrap Dream            55.8          19.8               207        4000
5 Gentoo    Biscoe           55.1          16                 230        5850
6 Gentoo    Biscoe           54.3          15.7               231        5650
# ℹ 338 more rows
# ℹ 2 more variables: sex <fct>, year <int>
…
 [1] 32.1 33.1 33.5 34.0 34.1 34.4 34.5 34.6 34.6 35.0

2.5 Data manipulation by column

select()

The select function narrows the data by choosing specific columns. We use this function when we want to retain or display only certain columns. For example, let’s create a new tibble that only contains the columns bill_length_mm and flipper_length_mm.

penguins |>
  select(bill_length_mm, flipper_length_mm)

# A tibble: 344 × 2
  bill_length_mm flipper_length_mm
           <dbl>             <int>
1           39.1               181
2           39.5               186
3           40.3               195
4           NA                  NA
5           36.7               193
6           39.3               190
# ℹ 338 more rows

Note that the number of rows remains unchanged from the original data.

We may also exclude columns by using - in front of the column name. For example, in the code below we create a new tibble that excludes the column species.

penguins |>
  select(-species)

# A tibble: 344 × 7
  island  bill_length_mm bill_depth_mm flipper_length_mm body_mass_g sex    year
  <fct>            <dbl>         <dbl>             <int>       <int> <fct> <int>
1 Torger…           39.1          18.7               181        3750 male   2007
2 Torger…           39.5          17.4               186        3800 fema…  2007
3 Torger…           40.3          18                 195        3250 fema…  2007
4 Torger…           NA            NA                  NA          NA <NA>   2007
5 Torger…           36.7          19.3               193        3450 fema…  2007
6 Torger…           39.3          20.6               190        3650 male   2007
# ℹ 338 more rows

mutate()

The mutate function is used to create new columns or change the values in an existing column. We often use this in the analysis to create new variables from existing ones or to impute values for missing data.

For example, let’s create a new variable called dream that takes value 1 if the penguin is from the Dream island and the value 0 otherwise (called an indicator variable).

penguins |> 
  mutate(dream = if_else(island == "Dream", 1, 0))

# A tibble: 344 × 9
  species island    bill_length_mm bill_depth_mm flipper_length_mm body_mass_g
  <fct>   <fct>              <dbl>         <dbl>             <int>       <int>
1 Adelie  Torgersen           39.1          18.7               181        3750
2 Adelie  Torgersen           39.5          17.4               186        3800
3 Adelie  Torgersen           40.3          18                 195        3250
4 Adelie  Torgersen           NA            NA                  NA          NA
5 Adelie  Torgersen           36.7          19.3               193        3450
6 Adelie  Torgersen           39.3          20.6               190        3650
# ℹ 338 more rows
# ℹ 3 more variables: sex <fct>, year <int>, dream <dbl>

At the top of the tibble, we see the number of observations hasn’t changed, but we now have an additional column in the data set. Below are the values of island and dream for ten randomly selected observations.

# A tibble: 10 × 2
  island dream
  <fct>  <dbl>
1 Dream      1
2 Biscoe     0
3 Biscoe     0
4 Biscoe     0
5 Biscoe     0
6 Dream      1
# ℹ 4 more rows

This code uses the if_else() function, a useful function for applying “if/else” statements. The structure of the function is if_else([Criteria], [Result if true], [Result if false]).

The mutate function is also used to change the values in existing columns. Using the name of an existing column will overwrite the data in that column based on the output from mutate(). For example, there are 11 penguins in the data with missing values for sex. Therefore, we would like to input the value Missing if the data are missing and otherwise keep the original value of sex. The values of sex for ten randomly selected penguins are below.

penguins |>
  mutate(sex = if_else(is.na(sex), "Missing", sex))

# A tibble: 10 × 1
  sex    
  <chr>  
1 Missing
2 male   
3 female 
4 male   
5 male   
6 female 
# ℹ 4 more rows
…
# A tibble: 5 × 3
  island    species       n
  <fct>     <fct>     <int>
1 Biscoe    Adelie       44
2 Biscoe    Gentoo      124
3 Dream     Adelie       56
4 Dream     Chinstrap    68
5 Torgersen Adelie       52

Some combinations of island and species are missing from the output. This means there are no observations in the data with that combination of values. For example, there are no penguins in the data who are from Biscoe island and the Chinstrap species. Include the argument .drop = FALSE to see all possible combinations of values, including those with zero observations in the data.

penguins |>
  count(island, species, .drop = FALSE)

# A tibble: 9 × 3
  island species       n
  <fct>  <fct>     <int>
1 Biscoe Adelie       44
2 Biscoe Chinstrap     0
3 Biscoe Gentoo      124
4 Dream  Adelie       56
5 Dream  Chinstrap    68
6 Dream  Gentoo        0
# ℹ 3 more rows
…
