7 Multiple linear regression – Introduction to Regression Analysis
…
7.8.3 Interaction terms

We use the asterisks * to include interaction terms between any two variables in R. The code to include the interaction between taxon and age is below.

lemurs_age_taxon_int <- lm(weight ~ age + sex + taxon + 
                             litter_size + taxon * age, 
                           data = lemurs)

tidy(lemurs_age_taxon_int)

# A tibble: 8 × 5
  term        estimate std.error statistic  p.value
  <chr>          <dbl>     <dbl>     <dbl>    <dbl>
1 (Intercept)    579.     135.       4.27  2.76e- 5
2 age             78.6      9.95     7.90  9.51e-14
3 sexM           -85.2     61.0     -1.40  1.63e- 1
4 taxonPCOQ     -356.     134.      -2.65  8.65e- 3
5 taxonVRUB      634.     163.       3.90  1.26e- 4
6 litter_size    -36.9     58.6     -0.629 5.30e- 1
# ℹ 2 more rows
…
