9 Variable transformations – Introduction to Regression Analysis
…
ncaa_model_logx <- lm(expenditure_m ~ log(enrollment_th) + region + type, 
                      data = ncaa_basketball)

Model with log(enrollment_th) , log(expenditure_m) , and interaction

ncaa_model_final <- lm(log(expenditure_m) ~ log(enrollment_th) + region + type + 
                         log(enrollment_th) * type,
                       data = ncaa_basketball)

The function exp() is used to exponentiate coefficients when writing interpretations for models with a log-transformed response variable. For example, \(e^2\) is computed as exp(2) in R. Below is code and output to make a new column with the exponentiated coefficients for the final model with log(enrollment_th), log(expenditure_m), and the interaction term. Note when displaying results using tidy() the coefficients are contained in the column estimate .

tidy(ncaa_model_final) |> 
  mutate(exp_coefficient = exp(estimate))

# A tibble: 7 × 6
  term               estimate std.error statistic  p.value exp_coefficient
  <chr>                 <dbl>     <dbl>     <dbl>    <dbl>           <dbl>
1 (Intercept)           1.31     0.131       9.96 9.73e-21           3.70 
2 log(enrollment_th)    0.524    0.0691      7.58 3.17e-13           1.69 
3 regionNortheast      -0.339    0.0924     -3.67 2.78e- 4           0.712
4 regionSouth          -0.117    0.0739     -1.58 1.14e- 1           0.890
5 regionWest           -0.232    0.0912     -2.54 1.14e- 2           0.793
6 typePublic           -1.28     0.162      -7.94 2.83e-14           0.277
# ℹ 1 more row
…
