10 Model selection – Introduction to Regression Analysis
…
3

Compute the average \(R^2\) and RMSE across all iterations. These are the default performance metrics for linear models.

# A tibble: 2 × 6
  .metric .estimator  mean     n std_err .config        
  <chr>   <chr>      <dbl> <int>   <dbl> <chr>          
1 rmse    standard   0.207     5 0.00104 pre0_mod0_post0
2 rsq     standard   0.237     5 0.0113  pre0_mod0_post0

The default for collect_metrics() is to produce the average performance statistics, as indicated by the argument summarize = TRUE . We can use summarize = FALSE to print the performance statistics for each iteration.

collect_metrics(spotify_cv, summarize = FALSE)

# A tibble: 10 × 5
  id    .metric .estimator .estimate .config        
  <chr> <chr>   <chr>          <dbl> <chr>          
1 Fold1 rmse    standard       0.207 pre0_mod0_post0
2 Fold1 rsq     standard       0.230 pre0_mod0_post0
3 Fold2 rmse    standard       0.206 pre0_mod0_post0
4 Fold2 rsq     standard       0.274 pre0_mod0_post0
5 Fold3 rmse    standard       0.210 pre0_mod0_post0
6 Fold3 rsq     standard       0.204 pre0_mod0_post0
# ℹ 4 more rows
…
