11 Logistic regression – Introduction to Regression Analysis
…
Use the gss24_ai data frame.

2

Compute all subsequent calculations separately for each level of tech_easy.

3

Count the number of observations such that aidrive_comfort == 0, and the number of observations such that aidrive_comfort == 1.

4

Compute the probability that aidrive_comfort == 0 and aidrive_comfort == 1 .

# A tibble: 8 × 5
# Groups:   tech_easy [4]
  tech_easy    aidrive_comfort     n probability empirical_logit
  <fct>        <fct>           <int>       <dbl>           <dbl>
1 Neutral      0                 127       0.585           0.344
2 Neutral      1                  90       0.415          -0.344
3 Can't choose 0                  18       0.6             0.405
4 Can't choose 1                  12       0.4            -0.405
5 Agree        0                 495       0.412          -0.355
6 Agree        1                 706       0.588           0.355
# ℹ 2 more rows
…
The first is using the cut() function that is part of base R. This function transforms numeric variable types into factor variable types by dividing them into bins. The argument breaks = is used to either specify the number of bins or explicitly define the bins. If the number of bins is specified, cut() will divide the observations into bins of equal length, as shown in the code below.

Once the bins are defined, the remainder of the code is the same as before, where the probability and empirical logit are computed for each bin. Here is the code to compute the empirical logit of comfort with driverless cars by age, where age is divided into 10 bins. Here, the cut() function divided the age into bins of length 7.

Note that the option dig.lab = 0 in the cut() function means to display the bin thresholds as integers, i.e., with 0 digits. This only changes how the lower and upper bounds are displayed; it does not change any computations.

gss24_ai |> 
  mutate(age_bins = cut(age, breaks = 10, dig.lab = 0)) |>
  group_by(age_bins) |>
  count(aidrive_comfort) |>
  mutate(probability = n / sum(n)) |>
  mutate(empirical_logit = log(probability/(1 - probability))) 

# A tibble: 20 × 5
# Groups:   age_bins [10]
  age_bins aidrive_comfort     n probability empirical_logit
  <fct>    <fct>           <int>       <dbl>           <dbl>
1 (18,25]  0                  44       0.333          -0.693
2 (18,25]  1                  88       0.667           0.693
3 (25,32]  0                  54       0.358          -0.586
4 (25,32]  1                  97       0.642           0.586
5 (32,39]  0                  79       0.382          -0.483
6 (32,39]  1                 128       0.618           0.483
# ℹ 14 more rows

Another option for splitting the quantitative variable into bins is to do, such that each bin has an approximately equal number of observations. To do so, we can use the cut2() function from them Hmisc R package (Harrell Jr 2025). The number of bins is specified in the g = argument, and the function will divide the observations into the number of specified bins, such that each bin has an approximately equal number of observations.

gss24_ai |> 
  mutate(age_bins = cut2(age, g = 10)) |>
  group_by(age_bins) |>
  count(aidrive_comfort) |>
  mutate(probability = n / sum(n)) |>
  mutate(empirical_logit = log(probability/(1 - probability))) |>
  filter(aidrive_comfort == 1) 

# A tibble: 10 × 5
# Groups:   age_bins [10]
  age_bins aidrive_comfort     n probability empirical_logit
  <fct>    <fct>           <int>       <dbl>           <dbl>
1 [18,27)  1                 107       0.677          0.741 
2 [27,34)  1                  98       0.636          0.560 
3 [34,40)  1                 108       0.607          0.434 
4 [40,45)  1                  82       0.582          0.329 
5 [45,50)  1                  77       0.575          0.301 
6 [50,57)  1                  77       0.490         -0.0382
# ℹ 4 more rows
…
